<?xml version="1.0" encoding="UTF-8" standalone="no"?>
<!-- Generator: Adobe Illustrator 16.2.0, SVG Export Plug-In . SVG Version: 6.00 Build 0)  -->

<svg
   xmlns:dc="http://purl.org/dc/elements/1.1/"
   xmlns:cc="http://creativecommons.org/ns#"
   xmlns:rdf="http://www.w3.org/1999/02/22-rdf-syntax-ns#"
   xmlns:svg="http://www.w3.org/2000/svg"
   xmlns="http://www.w3.org/2000/svg"
   xmlns:sodipodi="http://sodipodi.sourceforge.net/DTD/sodipodi-0.dtd"
   xmlns:inkscape="http://www.inkscape.org/namespaces/inkscape"
   version="1.1"
   id="Layer_1"
   x="0px"
   y="0px"
   width="32"
   height="32"
   viewBox="156.5 155.5 32 32"
   enable-background="new 156.5 155.5 640 660"
   xml:space="preserve"
   sodipodi:docname="logo_jet_2017_RGB_simple2_white_48x48.svg"
   inkscape:version="0.92.1 r15371"><metadata
     id="metadata3691"><rdf:RDF><cc:Work
         rdf:about=""><dc:format>image/svg+xml</dc:format><dc:type
           rdf:resource="http://purl.org/dc/dcmitype/StillImage" /><dc:title></dc:title></cc:Work></rdf:RDF></metadata><defs
     id="defs3689" /><sodipodi:namedview
     pagecolor="#ffffff"
     bordercolor="#666666"
     borderopacity="0.4"
     objecttolerance="10"
     gridtolerance="10"
     guidetolerance="10"
     inkscape:pageopacity="0"
     inkscape:pageshadow="2"
     inkscape:window-width="1920"
     inkscape:window-height="1148"
     id="namedview3687"
     showgrid="false"
     inkscape:zoom="23.733333"
     inkscape:cx="19.005941"
     inkscape:cy="18.01772"
     inkscape:window-x="-8"
     inkscape:window-y="127"
     inkscape:window-maximized="1"
     inkscape:current-layer="Layer_1"
     showguides="false"
     inkscape:pagecheckerboard="true"
     inkscape:showpageshadow="true"
     borderlayer="false"
     showborder="true"><inkscape:grid
       type="xygrid"
       id="grid3693" /></sodipodi:namedview><path
     d="m 182.98339,157.7979 c -0.50956,-0.49058 -1.03589,-0.94157 -1.69386,-1.28955 -0.91455,-0.48365 -1.92928,-0.74526 -2.96026,-0.8043 -2.38675,-0.13698 -4.74911,0.71004 -6.85488,1.75915 -2.06504,1.02896 -4.09752,2.30403 -5.89689,3.748 -1.23965,0.98177 -2.46402,1.9687 -3.60917,3.04618 0.0613,-0.0527 0.12259,-0.1054 0.18411,-0.15742 1.76236,-1.49207 3.73735,-2.80733 5.76669,-3.90464 2.11478,-1.18188 4.31476,-2.2555 6.64179,-2.95115 2.20697,-0.65963 4.67538,-1.0155 6.89803,-0.22688 0.55248,0.19612 1.05992,0.46112 1.52444,0.78061 z m -15.33692,25.76213 c -1.72438,-0.99843 -3.41494,-2.09512 -4.96471,-3.35028 -0.74652,-0.6045 -1.45662,-1.25292 -2.11894,-1.94903 -0.34566,-0.36303 -0.67813,-0.73948 -0.98552,-1.13594 -0.28341,-0.36576 -0.50776,-0.77399 -0.79025,-1.13761 -1.1809,-2.0605 -1.61952,-4.32039 -0.7581,-6.59604 0.129,-0.34081 0.27939,-0.67138 0.44762,-0.99253 -0.65158,1.05745 -1.15771,2.19795 -1.39379,3.41698 -0.44621,2.30388 0.31111,4.40883 1.6799,6.24408 0.4155,0.42 0.76687,0.89692 1.19676,1.3081 0.42305,0.40465 0.8723,0.78203 1.33314,1.14294 0.97155,0.761 2.00976,1.43395 3.08406,2.03975 2.21776,1.25086 4.56122,2.30601 6.96033,3.15662 1.05531,0.37419 2.21588,0.74929 3.41936,1.04461 -0.25659,-0.0744 -0.51045,-0.15306 -0.76067,-0.23526 -2.21543,-0.72782 -4.33477,-1.78982 -6.34919,-2.95639 z m 20.14512,-11.62534 c -0.0831,-0.94972 -0.18905,-1.89972 -0.32468,-2.84561 0.14348,2.28286 0.11141,4.59255 -0.10888,6.86661 -0.41091,4.24046 -1.68902,9.69597 -6.3411,11.08031 -0.46797,0.13932 -0.94454,0.22988 -1.42538,0.28075 1.89943,-0.0881 3.70339,-0.63719 5.17114,-1.96273 1.70379,-1.54086 2.50554,-3.8072 2.88083,-6.01827 0.41351,-2.43719 0.36298,-4.94634 0.14807,-7.40106 z"
     id="path3680"
     inkscape:connector-curvature="0"
     style="fill:#004FA3;fill-opacity:0.79215686;stroke-width:0.04843753" /><path
     d="m 181.70739,173.43934 2.15543,-1.44145 -0.35699,-0.53881 -9.71366,6.48667 0.35021,0.53881 6.94526,-4.63442 -4.56049,4.796 0.47798,0.43784 1.47555,-1.55596 -1.69778,3.69791 0.57936,0.27629 1.88616,-4.08194 -0.45803,-0.2087 3.27385,-3.43549 z"
     id="path3682"
     inkscape:connector-curvature="0"
     style="fill:#004FA3;fill-opacity:0.79215686;stroke-width:0.04843753" /><path
     d="m 178.1438,172.06134 h 0.88902 l 0.30985,-1.50156 h -0.88906 l 0.66025,-3.29375 H 177.652 l -1.09801,5.425 h -3.71861 c -1.15208,0 -1.77183,-1.04702 -1.54278,-1.97649 0.2156,-1.10485 1.25294,-1.9516 2.34453,-1.97861 0.31958,0.007 0.61277,0.0902 0.87333,0.24828 l 0.0169,0.0209 c 0.46025,0.29087 0.75964,0.82809 0.65915,1.55465 h -2.05454 l -0.31004,1.50156 h 3.53672 l 0.27623,-1.35189 c 0.36308,-1.76157 -0.67672,-3.07568 -2.10747,-3.36863 l -0.0169,-0.005 c -0.19211,-0.0391 -0.37806,-0.0596 -0.57694,-0.0663 -1.96729,0 -3.74572,1.66897 -4.10276,3.44048 -0.34351,1.94656 0.82184,3.3852 2.708,3.43363 h 3.71874 c -0.0741,0.72657 0.16847,1.3348 0.70739,1.68519 0,0 0.12492,0.0814 0.38599,0.18063 0.12453,0.0473 0.35504,0.0914 0.35504,0.0914 0.15486,0.0336 0.31655,0.0397 0.49169,0.0397 l 0.30977,-1.46852 c -0.55907,0.007 -0.80823,-0.19754 -0.7612,-0.67581 z m -9.04726,-6.82968 -1.34719,6.6467 c -0.12812,0.46466 -0.5053,0.77383 -1.0509,0.7468 l -0.30316,1.46123 c 0.69643,0.0269 1.49268,-0.26651 2.07122,-0.85236 l 0.0169,-0.0172 c 0.33368,-0.34936 0.5939,-0.79635 0.70759,-1.33846 l 1.35395,-6.64675 z"
     id="path3684"
     inkscape:connector-curvature="0"
     style="fill:#004FA3;fill-opacity:0.79059825;stroke-width:0.04843753" /></svg>